{
    "//": "The source and destination paths are relative to this file.",
    "source": [
      "source/scss"
    ],
    "destination":  "website/styleguide/",
    "css": [
      "../wp-content/themes/hakerpsson/dist/css/hakerpsson.min.css"
    ],
    "js": [
    ],
    "title": "dtui - Styleguide",
    "homepage": "kss-homepage.md"
  }
  